-- Merging decision tree log ---
manifest
ADDED from D:\fresh\freshorder-android\freshNew\src\main\AndroidManifest.xml:1:1-415:12
	package
		ADDED from D:\fresh\freshorder-android\freshNew\src\main\AndroidManifest.xml:2:5-41
		INJECTED from D:\fresh\freshorder-android\freshNew\src\main\AndroidManifest.xml
		INJECTED from D:\fresh\freshorder-android\freshNew\src\main\AndroidManifest.xml
	android:versionName
		ADDED from D:\fresh\freshorder-android\freshNew\src\main\AndroidManifest.xml:5:5-30
		INJECTED from D:\fresh\freshorder-android\freshNew\src\main\AndroidManifest.xml
		INJECTED from D:\fresh\freshorder-android\freshNew\src\main\AndroidManifest.xml
	android:versionCode
		ADDED from D:\fresh\freshorder-android\freshNew\src\main\AndroidManifest.xml:4:5-28
		INJECTED from D:\fresh\freshorder-android\freshNew\src\main\AndroidManifest.xml
		INJECTED from D:\fresh\freshorder-android\freshNew\src\main\AndroidManifest.xml
	xmlns:android
		ADDED from D:\fresh\freshorder-android\freshNew\src\main\AndroidManifest.xml:1:11-69
	android:installLocation
		ADDED from D:\fresh\freshorder-android\freshNew\src\main\AndroidManifest.xml:3:5-45
uses-permission#android.permission.ACCESS_COARSE_LOCATION
ADDED from D:\fresh\freshorder-android\freshNew\src\main\AndroidManifest.xml:6:5-81
	android:name
		ADDED from D:\fresh\freshorder-android\freshNew\src\main\AndroidManifest.xml:6:22-78
uses-permission#android.permission.WRITE_CALENDAR
ADDED from D:\fresh\freshorder-android\freshNew\src\main\AndroidManifest.xml:7:5-73
	android:name
		ADDED from D:\fresh\freshorder-android\freshNew\src\main\AndroidManifest.xml:7:22-70
uses-permission#android.permission.READ_CALENDAR
ADDED from D:\fresh\freshorder-android\freshNew\src\main\AndroidManifest.xml:8:5-72
	android:name
		ADDED from D:\fresh\freshorder-android\freshNew\src\main\AndroidManifest.xml:8:22-69
uses-permission#android.permission.RECEIVE_SMS
ADDED from D:\fresh\freshorder-android\freshNew\src\main\AndroidManifest.xml:9:5-86
	android:name
		ADDED from D:\fresh\freshorder-android\freshNew\src\main\AndroidManifest.xml:9:22-67
uses-permission#android.permission.ACCESS_NETWORK_STATE
ADDED from D:\fresh\freshorder-android\freshNew\src\main\AndroidManifest.xml:10:5-95
	android:name
		ADDED from D:\fresh\freshorder-android\freshNew\src\main\AndroidManifest.xml:10:22-76
uses-permission#android.permission.INTERNET
ADDED from D:\fresh\freshorder-android\freshNew\src\main\AndroidManifest.xml:11:5-67
	android:name
		ADDED from D:\fresh\freshorder-android\freshNew\src\main\AndroidManifest.xml:11:22-64
uses-permission#android.permission.READ_SMS
ADDED from D:\fresh\freshorder-android\freshNew\src\main\AndroidManifest.xml:12:5-67
	android:name
		ADDED from D:\fresh\freshorder-android\freshNew\src\main\AndroidManifest.xml:12:22-64
uses-permission#android.permission.SEND_SMS
ADDED from D:\fresh\freshorder-android\freshNew\src\main\AndroidManifest.xml:13:5-83
	android:name
		ADDED from D:\fresh\freshorder-android\freshNew\src\main\AndroidManifest.xml:13:22-64
uses-permission#android.permission.READ_EXTERNAL_STORAGE
ADDED from D:\fresh\freshorder-android\freshNew\src\main\AndroidManifest.xml:14:5-96
	android:name
		ADDED from D:\fresh\freshorder-android\freshNew\src\main\AndroidManifest.xml:14:22-77
uses-permission#android.permission.WRITE_EXTERNAL_STORAGE
ADDED from D:\fresh\freshorder-android\freshNew\src\main\AndroidManifest.xml:15:5-81
	android:name
		ADDED from D:\fresh\freshorder-android\freshNew\src\main\AndroidManifest.xml:15:22-78
uses-permission#android.permission.ACCESS_WIFI_STATE
ADDED from D:\fresh\freshorder-android\freshNew\src\main\AndroidManifest.xml:16:5-76
	android:name
		ADDED from D:\fresh\freshorder-android\freshNew\src\main\AndroidManifest.xml:16:22-73
uses-permission#android.permission.ACCESS_FINE_LOCATION
ADDED from D:\fresh\freshorder-android\freshNew\src\main\AndroidManifest.xml:17:5-79
	android:name
		ADDED from D:\fresh\freshorder-android\freshNew\src\main\AndroidManifest.xml:17:22-76
uses-permission#android.permission.GET_ACCOUNTS
ADDED from D:\fresh\freshorder-android\freshNew\src\main\AndroidManifest.xml:19:5-71
	android:name
		ADDED from D:\fresh\freshorder-android\freshNew\src\main\AndroidManifest.xml:19:22-68
uses-permission#android.permission.WAKE_LOCK
ADDED from D:\fresh\freshorder-android\freshNew\src\main\AndroidManifest.xml:22:5-68
	android:name
		ADDED from D:\fresh\freshorder-android\freshNew\src\main\AndroidManifest.xml:22:22-65
permission#com.freshorders.freshorder.permission.C2D_MESSAGE
ADDED from D:\fresh\freshorder-android\freshNew\src\main\AndroidManifest.xml:25:5-27:47
	android:protectionLevel
		ADDED from D:\fresh\freshorder-android\freshNew\src\main\AndroidManifest.xml:27:9-44
	android:name
		ADDED from D:\fresh\freshorder-android\freshNew\src\main\AndroidManifest.xml:26:9-73
uses-permission#com.freshorders.freshorder.permission.C2D_MESSAGE
ADDED from D:\fresh\freshorder-android\freshNew\src\main\AndroidManifest.xml:29:5-89
	android:name
		ADDED from D:\fresh\freshorder-android\freshNew\src\main\AndroidManifest.xml:29:22-86
uses-permission#com.google.android.c2dm.permission.RECEIVE
ADDED from D:\fresh\freshorder-android\freshNew\src\main\AndroidManifest.xml:31:5-82
	android:name
		ADDED from D:\fresh\freshorder-android\freshNew\src\main\AndroidManifest.xml:31:22-79
uses-permission#android.permission.READ_PHONE_STATE
ADDED from D:\fresh\freshorder-android\freshNew\src\main\AndroidManifest.xml:32:5-75
	android:name
		ADDED from D:\fresh\freshorder-android\freshNew\src\main\AndroidManifest.xml:32:22-72
uses-feature#android.hardware.location
ADDED from D:\fresh\freshorder-android\freshNew\src\main\AndroidManifest.xml:34:5-36:35
	android:required
		ADDED from D:\fresh\freshorder-android\freshNew\src\main\AndroidManifest.xml:36:9-32
	android:name
		ADDED from D:\fresh\freshorder-android\freshNew\src\main\AndroidManifest.xml:35:9-49
uses-feature#android.hardware.location.gps
ADDED from D:\fresh\freshorder-android\freshNew\src\main\AndroidManifest.xml:37:5-39:36
	android:required
		ADDED from D:\fresh\freshorder-android\freshNew\src\main\AndroidManifest.xml:39:9-33
	android:name
		ADDED from D:\fresh\freshorder-android\freshNew\src\main\AndroidManifest.xml:38:9-53
uses-feature#0x00020000
ADDED from D:\fresh\freshorder-android\freshNew\src\main\AndroidManifest.xml:40:5-42:35
	android:glEsVersion
		ADDED from D:\fresh\freshorder-android\freshNew\src\main\AndroidManifest.xml:41:9-41
	android:required
		ADDED from D:\fresh\freshorder-android\freshNew\src\main\AndroidManifest.xml:42:9-32
application
ADDED from D:\fresh\freshorder-android\freshNew\src\main\AndroidManifest.xml:44:5-412:19
MERGED from [com.instamojo:android-sdk:1.1.1] C:\Users\Karthika\.android\build-cache\0cad38004876e6c43a68d2dbc738a7211d2f3a54\output\AndroidManifest.xml:11:5-33:19
MERGED from [in.juspay:godel:0.6.6] C:\Users\Karthika\.android\build-cache\c9464ec2f586e6b595d12af60a8fc77c2ed1b509\output\AndroidManifest.xml:5:5-7:19
MERGED from [com.google.android.gms:play-services:6.5.87] C:\Users\Karthika\.android\build-cache\3188368098bc197d38a4cdd883277398eb0e9789\output\AndroidManifest.xml:20:5-24:19
MERGED from [com.google.maps.android:android-maps-utils:0.3.4] C:\Users\Karthika\.android\build-cache\1c626c6c09c5c2bb6a9eaa664e74e3053a482493\output\AndroidManifest.xml:7:5-20
MERGED from [com.android.support:cardview-v7:25.3.0] C:\Users\Karthika\.android\build-cache\fec086f064a8c38e12b3a682a8f98631740fb792\output\AndroidManifest.xml:26:5-20
MERGED from [com.kaopiz:kprogresshud:1.0.5] C:\Users\Karthika\.android\build-cache\a5a3dbd2693473abb584e16b063e52e6ed949465\output\AndroidManifest.xml:11:5-13:38
MERGED from [com.leavjenn.smoothdaterangepicker:library:0.2.0] D:\fresh\freshorder-android\library\build\intermediates\bundles\default\AndroidManifest.xml:11:5-15:19
MERGED from [com.android.support:appcompat-v7:25.3.0] C:\Users\Karthika\.android\build-cache\ffa177ac814ef5512d0ceea8b5dbbef6a1ae5c3f\output\AndroidManifest.xml:29:5-20
MERGED from [com.android.support:support-v4:25.3.0] C:\Users\Karthika\.android\build-cache\acbe94ec74a74acf36d47718e52c2d99237e8883\output\AndroidManifest.xml:29:5-20
MERGED from [com.android.support:support-fragment:25.3.0] C:\Users\Karthika\.android\build-cache\4468b789e1b5ae98ca5ec7309d0bd4fc3f01c5d5\output\AndroidManifest.xml:29:5-20
MERGED from [com.android.support:support-media-compat:25.3.0] C:\Users\Karthika\.android\build-cache\53f39c47fa1f2483f937a559efb9219b55be332e\output\AndroidManifest.xml:29:5-20
MERGED from [com.android.support:support-core-ui:25.3.0] C:\Users\Karthika\.android\build-cache\17097fefa0127b40a896388ff0b4c82a9c817ebf\output\AndroidManifest.xml:29:5-20
MERGED from [com.android.support:support-core-utils:25.3.0] C:\Users\Karthika\.android\build-cache\1d41a5da6c356c3c03b4a12812ef168114359a23\output\AndroidManifest.xml:29:5-20
MERGED from [com.android.support:animated-vector-drawable:25.3.0] C:\Users\Karthika\.android\build-cache\a235902fdd1dfdcbd24efa9a7889343355b68ee6\output\AndroidManifest.xml:26:5-20
MERGED from [com.android.support:support-vector-drawable:25.3.0] C:\Users\Karthika\.android\build-cache\6f027afe4f4994b50f7077698b424f85fffdd53e\output\AndroidManifest.xml:26:5-20
MERGED from [com.android.support:support-compat:25.3.0] C:\Users\Karthika\.android\build-cache\8c0bd97d915ec60eb047e32b544ef48d2a0920ee\output\AndroidManifest.xml:29:5-20
	android:label
		ADDED from D:\fresh\freshorder-android\freshNew\src\main\AndroidManifest.xml:48:9-41
	android:supportsRtl
		ADDED from [com.instamojo:android-sdk:1.1.1] C:\Users\Karthika\.android\build-cache\0cad38004876e6c43a68d2dbc738a7211d2f3a54\output\AndroidManifest.xml:14:9-35
	android:allowBackup
		ADDED from D:\fresh\freshorder-android\freshNew\src\main\AndroidManifest.xml:46:9-35
	android:icon
		ADDED from D:\fresh\freshorder-android\freshNew\src\main\AndroidManifest.xml:47:9-46
	android:largeHeap
		ADDED from D:\fresh\freshorder-android\freshNew\src\main\AndroidManifest.xml:49:9-33
	android:theme
		ADDED from D:\fresh\freshorder-android\freshNew\src\main\AndroidManifest.xml:51:9-40
	android:name
		ADDED from D:\fresh\freshorder-android\freshNew\src\main\AndroidManifest.xml:45:9-68
meta-data#com.google.android.maps.v2.API_KEY
ADDED from D:\fresh\freshorder-android\freshNew\src\main\AndroidManifest.xml:54:9-56:71
	android:value
		ADDED from D:\fresh\freshorder-android\freshNew\src\main\AndroidManifest.xml:56:13-68
	android:name
		ADDED from D:\fresh\freshorder-android\freshNew\src\main\AndroidManifest.xml:55:13-62
activity#com.freshorders.freshorder.ui.SplashActivity
ADDED from D:\fresh\freshorder-android\freshNew\src\main\AndroidManifest.xml:58:9-68:20
	android:screenOrientation
		ADDED from D:\fresh\freshorder-android\freshNew\src\main\AndroidManifest.xml:61:13-49
	android:label
		ADDED from D:\fresh\freshorder-android\freshNew\src\main\AndroidManifest.xml:60:13-45
	android:windowSoftInputMode
		ADDED from D:\fresh\freshorder-android\freshNew\src\main\AndroidManifest.xml:62:13-52
	android:name
		ADDED from D:\fresh\freshorder-android\freshNew\src\main\AndroidManifest.xml:59:13-72
intent-filter#android.intent.action.MAIN+android.intent.category.LAUNCHER
ADDED from D:\fresh\freshorder-android\freshNew\src\main\AndroidManifest.xml:63:13-67:29
action#android.intent.action.MAIN
ADDED from D:\fresh\freshorder-android\freshNew\src\main\AndroidManifest.xml:64:17-69
	android:name
		ADDED from D:\fresh\freshorder-android\freshNew\src\main\AndroidManifest.xml:64:25-66
category#android.intent.category.LAUNCHER
ADDED from D:\fresh\freshorder-android\freshNew\src\main\AndroidManifest.xml:66:17-77
	android:name
		ADDED from D:\fresh\freshorder-android\freshNew\src\main\AndroidManifest.xml:66:27-74
receiver#com.freshorders.freshorder.utils.NetworkChangeReceiver
ADDED from D:\fresh\freshorder-android\freshNew\src\main\AndroidManifest.xml:70:9-77:20
	android:label
		ADDED from D:\fresh\freshorder-android\freshNew\src\main\AndroidManifest.xml:72:13-50
	android:name
		ADDED from D:\fresh\freshorder-android\freshNew\src\main\AndroidManifest.xml:71:13-82
intent-filter#android.net.conn.CONNECTIVITY_CHANGE+android.net.wifi.WIFI_STATE_CHANGED
ADDED from D:\fresh\freshorder-android\freshNew\src\main\AndroidManifest.xml:73:13-76:29
action#android.net.conn.CONNECTIVITY_CHANGE
ADDED from D:\fresh\freshorder-android\freshNew\src\main\AndroidManifest.xml:74:17-79
	android:name
		ADDED from D:\fresh\freshorder-android\freshNew\src\main\AndroidManifest.xml:74:25-76
action#android.net.wifi.WIFI_STATE_CHANGED
ADDED from D:\fresh\freshorder-android\freshNew\src\main\AndroidManifest.xml:75:17-78
	android:name
		ADDED from D:\fresh\freshorder-android\freshNew\src\main\AndroidManifest.xml:75:25-75
receiver#com.google.android.gcm.GCMBroadcastReceiver
ADDED from D:\fresh\freshorder-android\freshNew\src\main\AndroidManifest.xml:79:9-91:20
	android:permission
		ADDED from D:\fresh\freshorder-android\freshNew\src\main\AndroidManifest.xml:81:13-73
	android:name
		ADDED from D:\fresh\freshorder-android\freshNew\src\main\AndroidManifest.xml:80:13-71
intent-filter#com.freshorders.freshorder+com.google.android.c2dm.intent.RECEIVE+com.google.android.c2dm.intent.REGISTRATION
ADDED from D:\fresh\freshorder-android\freshNew\src\main\AndroidManifest.xml:82:13-90:29
action#com.google.android.c2dm.intent.RECEIVE
ADDED from D:\fresh\freshorder-android\freshNew\src\main\AndroidManifest.xml:85:17-81
	android:name
		ADDED from D:\fresh\freshorder-android\freshNew\src\main\AndroidManifest.xml:85:25-78
action#com.google.android.c2dm.intent.REGISTRATION
ADDED from D:\fresh\freshorder-android\freshNew\src\main\AndroidManifest.xml:87:17-86
	android:name
		ADDED from D:\fresh\freshorder-android\freshNew\src\main\AndroidManifest.xml:87:25-83
category#com.freshorders.freshorder
ADDED from D:\fresh\freshorder-android\freshNew\src\main\AndroidManifest.xml:89:17-71
	android:name
		ADDED from D:\fresh\freshorder-android\freshNew\src\main\AndroidManifest.xml:89:27-68
service#com.freshorders.freshorder.GCMIntentService
ADDED from D:\fresh\freshorder-android\freshNew\src\main\AndroidManifest.xml:93:9-79
	android:name
		ADDED from D:\fresh\freshorder-android\freshNew\src\main\AndroidManifest.xml:93:18-76
activity#com.freshorders.freshorder.ui.MySalesActivity
ADDED from D:\fresh\freshorder-android\freshNew\src\main\AndroidManifest.xml:95:9-98:55
	android:screenOrientation
		ADDED from D:\fresh\freshorder-android\freshNew\src\main\AndroidManifest.xml:97:13-49
	android:windowSoftInputMode
		ADDED from D:\fresh\freshorder-android\freshNew\src\main\AndroidManifest.xml:98:13-52
	android:name
		ADDED from D:\fresh\freshorder-android\freshNew\src\main\AndroidManifest.xml:96:13-73
activity#com.freshorders.freshorder.ui.webViewActivityForPayment
ADDED from D:\fresh\freshorder-android\freshNew\src\main\AndroidManifest.xml:101:9-104:55
	android:screenOrientation
		ADDED from D:\fresh\freshorder-android\freshNew\src\main\AndroidManifest.xml:103:13-49
	android:windowSoftInputMode
		ADDED from D:\fresh\freshorder-android\freshNew\src\main\AndroidManifest.xml:104:13-52
	android:name
		ADDED from D:\fresh\freshorder-android\freshNew\src\main\AndroidManifest.xml:102:13-83
activity#com.freshorders.freshorder.ui.CompanyBeatActivity
ADDED from D:\fresh\freshorder-android\freshNew\src\main\AndroidManifest.xml:106:9-109:55
	android:screenOrientation
		ADDED from D:\fresh\freshorder-android\freshNew\src\main\AndroidManifest.xml:108:13-49
	android:windowSoftInputMode
		ADDED from D:\fresh\freshorder-android\freshNew\src\main\AndroidManifest.xml:109:13-52
	android:name
		ADDED from D:\fresh\freshorder-android\freshNew\src\main\AndroidManifest.xml:107:13-77
activity#com.freshorders.freshorder.ui.EODActivity
ADDED from D:\fresh\freshorder-android\freshNew\src\main\AndroidManifest.xml:111:9-114:55
	android:screenOrientation
		ADDED from D:\fresh\freshorder-android\freshNew\src\main\AndroidManifest.xml:113:13-49
	android:windowSoftInputMode
		ADDED from D:\fresh\freshorder-android\freshNew\src\main\AndroidManifest.xml:114:13-52
	android:name
		ADDED from D:\fresh\freshorder-android\freshNew\src\main\AndroidManifest.xml:112:13-69
activity#com.freshorders.freshorder.ui.SchemeDownload
ADDED from D:\fresh\freshorder-android\freshNew\src\main\AndroidManifest.xml:115:9-118:55
	android:screenOrientation
		ADDED from D:\fresh\freshorder-android\freshNew\src\main\AndroidManifest.xml:117:13-49
	android:windowSoftInputMode
		ADDED from D:\fresh\freshorder-android\freshNew\src\main\AndroidManifest.xml:118:13-52
	android:name
		ADDED from D:\fresh\freshorder-android\freshNew\src\main\AndroidManifest.xml:116:13-72
activity#com.freshorders.freshorder.ui.SalesManOrderCheckoutActivity
ADDED from D:\fresh\freshorder-android\freshNew\src\main\AndroidManifest.xml:119:9-122:55
	android:screenOrientation
		ADDED from D:\fresh\freshorder-android\freshNew\src\main\AndroidManifest.xml:121:13-49
	android:windowSoftInputMode
		ADDED from D:\fresh\freshorder-android\freshNew\src\main\AndroidManifest.xml:122:13-52
	android:name
		ADDED from D:\fresh\freshorder-android\freshNew\src\main\AndroidManifest.xml:120:13-87
activity#com.freshorders.freshorder.ui.PaymentConfirmationActivity
ADDED from D:\fresh\freshorder-android\freshNew\src\main\AndroidManifest.xml:123:9-126:55
	android:screenOrientation
		ADDED from D:\fresh\freshorder-android\freshNew\src\main\AndroidManifest.xml:125:13-49
	android:windowSoftInputMode
		ADDED from D:\fresh\freshorder-android\freshNew\src\main\AndroidManifest.xml:126:13-52
	android:name
		ADDED from D:\fresh\freshorder-android\freshNew\src\main\AndroidManifest.xml:124:13-85
activity#com.freshorders.freshorder.utils.GPSTrackerActivity
ADDED from D:\fresh\freshorder-android\freshNew\src\main\AndroidManifest.xml:127:9-130:55
	android:screenOrientation
		ADDED from D:\fresh\freshorder-android\freshNew\src\main\AndroidManifest.xml:129:13-49
	android:windowSoftInputMode
		ADDED from D:\fresh\freshorder-android\freshNew\src\main\AndroidManifest.xml:130:13-52
	android:name
		ADDED from D:\fresh\freshorder-android\freshNew\src\main\AndroidManifest.xml:128:13-79
activity#com.freshorders.freshorder.ui.CameraPhotoCapture
ADDED from D:\fresh\freshorder-android\freshNew\src\main\AndroidManifest.xml:131:9-134:55
	android:screenOrientation
		ADDED from D:\fresh\freshorder-android\freshNew\src\main\AndroidManifest.xml:133:13-49
	android:windowSoftInputMode
		ADDED from D:\fresh\freshorder-android\freshNew\src\main\AndroidManifest.xml:134:13-52
	android:name
		ADDED from D:\fresh\freshorder-android\freshNew\src\main\AndroidManifest.xml:132:13-76
activity#com.freshorders.freshorder.ui.FullImagePostNoteActivity
ADDED from D:\fresh\freshorder-android\freshNew\src\main\AndroidManifest.xml:136:9-139:55
	android:screenOrientation
		ADDED from D:\fresh\freshorder-android\freshNew\src\main\AndroidManifest.xml:138:13-49
	android:windowSoftInputMode
		ADDED from D:\fresh\freshorder-android\freshNew\src\main\AndroidManifest.xml:139:13-52
	android:name
		ADDED from D:\fresh\freshorder-android\freshNew\src\main\AndroidManifest.xml:137:13-83
activity#com.freshorders.freshorder.ui.SMClientVisitHistory
ADDED from D:\fresh\freshorder-android\freshNew\src\main\AndroidManifest.xml:141:9-144:55
	android:screenOrientation
		ADDED from D:\fresh\freshorder-android\freshNew\src\main\AndroidManifest.xml:143:13-49
	android:windowSoftInputMode
		ADDED from D:\fresh\freshorder-android\freshNew\src\main\AndroidManifest.xml:144:13-52
	android:name
		ADDED from D:\fresh\freshorder-android\freshNew\src\main\AndroidManifest.xml:142:13-78
activity#com.freshorders.freshorder.ui.DealerPaymentActivity
ADDED from D:\fresh\freshorder-android\freshNew\src\main\AndroidManifest.xml:146:9-149:55
	android:screenOrientation
		ADDED from D:\fresh\freshorder-android\freshNew\src\main\AndroidManifest.xml:148:13-49
	android:windowSoftInputMode
		ADDED from D:\fresh\freshorder-android\freshNew\src\main\AndroidManifest.xml:149:13-52
	android:name
		ADDED from D:\fresh\freshorder-android\freshNew\src\main\AndroidManifest.xml:147:13-79
activity#com.freshorders.freshorder.ui.SigninActivity
ADDED from D:\fresh\freshorder-android\freshNew\src\main\AndroidManifest.xml:151:9-155:64
	android:screenOrientation
		ADDED from D:\fresh\freshorder-android\freshNew\src\main\AndroidManifest.xml:154:13-49
	android:label
		ADDED from D:\fresh\freshorder-android\freshNew\src\main\AndroidManifest.xml:153:13-45
	android:windowSoftInputMode
		ADDED from D:\fresh\freshorder-android\freshNew\src\main\AndroidManifest.xml:155:13-52
	android:name
		ADDED from D:\fresh\freshorder-android\freshNew\src\main\AndroidManifest.xml:152:13-72
activity#com.freshorders.freshorder.ui.SM_FullGalleryView
ADDED from D:\fresh\freshorder-android\freshNew\src\main\AndroidManifest.xml:157:9-161:64
	android:screenOrientation
		ADDED from D:\fresh\freshorder-android\freshNew\src\main\AndroidManifest.xml:160:13-49
	android:label
		ADDED from D:\fresh\freshorder-android\freshNew\src\main\AndroidManifest.xml:159:13-45
	android:windowSoftInputMode
		ADDED from D:\fresh\freshorder-android\freshNew\src\main\AndroidManifest.xml:161:13-52
	android:name
		ADDED from D:\fresh\freshorder-android\freshNew\src\main\AndroidManifest.xml:158:13-76
activity#com.freshorders.freshorder.ui.SM_FullGalleryView1
ADDED from D:\fresh\freshorder-android\freshNew\src\main\AndroidManifest.xml:162:9-166:64
	android:screenOrientation
		ADDED from D:\fresh\freshorder-android\freshNew\src\main\AndroidManifest.xml:165:13-49
	android:label
		ADDED from D:\fresh\freshorder-android\freshNew\src\main\AndroidManifest.xml:164:13-45
	android:windowSoftInputMode
		ADDED from D:\fresh\freshorder-android\freshNew\src\main\AndroidManifest.xml:166:13-52
	android:name
		ADDED from D:\fresh\freshorder-android\freshNew\src\main\AndroidManifest.xml:163:13-77
activity#com.freshorders.freshorder.ui.FullImagePostNotesDealer
ADDED from D:\fresh\freshorder-android\freshNew\src\main\AndroidManifest.xml:167:9-169:64
	android:windowSoftInputMode
		ADDED from D:\fresh\freshorder-android\freshNew\src\main\AndroidManifest.xml:169:13-52
	android:name
		ADDED from D:\fresh\freshorder-android\freshNew\src\main\AndroidManifest.xml:168:13-82
activity#com.freshorders.freshorder.ui.FullImageActivity
ADDED from D:\fresh\freshorder-android\freshNew\src\main\AndroidManifest.xml:170:9-172:64
	android:windowSoftInputMode
		ADDED from D:\fresh\freshorder-android\freshNew\src\main\AndroidManifest.xml:172:13-52
	android:name
		ADDED from D:\fresh\freshorder-android\freshNew\src\main\AndroidManifest.xml:171:13-75
activity#com.freshorders.freshorder.ui.MainActivity
ADDED from D:\fresh\freshorder-android\freshNew\src\main\AndroidManifest.xml:173:9-175:64
	android:windowSoftInputMode
		ADDED from D:\fresh\freshorder-android\freshNew\src\main\AndroidManifest.xml:175:13-52
	android:name
		ADDED from D:\fresh\freshorder-android\freshNew\src\main\AndroidManifest.xml:174:13-70
activity#com.freshorders.freshorder.ui.DealerFullImage
ADDED from D:\fresh\freshorder-android\freshNew\src\main\AndroidManifest.xml:176:9-178:64
	android:windowSoftInputMode
		ADDED from D:\fresh\freshorder-android\freshNew\src\main\AndroidManifest.xml:178:13-52
	android:name
		ADDED from D:\fresh\freshorder-android\freshNew\src\main\AndroidManifest.xml:177:13-73
activity#com.freshorders.freshorder.ui.AppPaymentHistoryActivity
ADDED from D:\fresh\freshorder-android\freshNew\src\main\AndroidManifest.xml:179:9-181:64
	android:windowSoftInputMode
		ADDED from D:\fresh\freshorder-android\freshNew\src\main\AndroidManifest.xml:181:13-52
	android:name
		ADDED from D:\fresh\freshorder-android\freshNew\src\main\AndroidManifest.xml:180:13-83
activity#com.freshorders.freshorder.ui.ClientVisitActivity
ADDED from D:\fresh\freshorder-android\freshNew\src\main\AndroidManifest.xml:182:9-184:64
	android:windowSoftInputMode
		ADDED from D:\fresh\freshorder-android\freshNew\src\main\AndroidManifest.xml:184:13-52
	android:name
		ADDED from D:\fresh\freshorder-android\freshNew\src\main\AndroidManifest.xml:183:13-77
activity#com.freshorders.freshorder.ui.SalesmanPaymentCollectionActivity
ADDED from D:\fresh\freshorder-android\freshNew\src\main\AndroidManifest.xml:185:9-187:64
	android:windowSoftInputMode
		ADDED from D:\fresh\freshorder-android\freshNew\src\main\AndroidManifest.xml:187:13-52
	android:name
		ADDED from D:\fresh\freshorder-android\freshNew\src\main\AndroidManifest.xml:186:13-91
activity#com.freshorders.freshorder.ui.MerchantOrderCheckoutActivity
ADDED from D:\fresh\freshorder-android\freshNew\src\main\AndroidManifest.xml:188:9-192:64
	android:screenOrientation
		ADDED from D:\fresh\freshorder-android\freshNew\src\main\AndroidManifest.xml:191:13-49
	android:label
		ADDED from D:\fresh\freshorder-android\freshNew\src\main\AndroidManifest.xml:190:13-45
	android:windowSoftInputMode
		ADDED from D:\fresh\freshorder-android\freshNew\src\main\AndroidManifest.xml:192:13-52
	android:name
		ADDED from D:\fresh\freshorder-android\freshNew\src\main\AndroidManifest.xml:189:13-87
activity#com.freshorders.freshorder.ui.MerchantSingleDetailActivity
ADDED from D:\fresh\freshorder-android\freshNew\src\main\AndroidManifest.xml:194:9-198:64
	android:screenOrientation
		ADDED from D:\fresh\freshorder-android\freshNew\src\main\AndroidManifest.xml:197:13-49
	android:label
		ADDED from D:\fresh\freshorder-android\freshNew\src\main\AndroidManifest.xml:196:13-45
	android:windowSoftInputMode
		ADDED from D:\fresh\freshorder-android\freshNew\src\main\AndroidManifest.xml:198:13-52
	android:name
		ADDED from D:\fresh\freshorder-android\freshNew\src\main\AndroidManifest.xml:195:13-86
activity#com.freshorders.freshorder.ui.RefreshActivity
ADDED from D:\fresh\freshorder-android\freshNew\src\main\AndroidManifest.xml:200:9-204:64
	android:screenOrientation
		ADDED from D:\fresh\freshorder-android\freshNew\src\main\AndroidManifest.xml:203:13-49
	android:label
		ADDED from D:\fresh\freshorder-android\freshNew\src\main\AndroidManifest.xml:202:13-45
	android:windowSoftInputMode
		ADDED from D:\fresh\freshorder-android\freshNew\src\main\AndroidManifest.xml:204:13-52
	android:name
		ADDED from D:\fresh\freshorder-android\freshNew\src\main\AndroidManifest.xml:201:13-73
activity#com.freshorders.freshorder.ui.MerchantOrderConfirmation
ADDED from D:\fresh\freshorder-android\freshNew\src\main\AndroidManifest.xml:207:9-211:64
	android:screenOrientation
		ADDED from D:\fresh\freshorder-android\freshNew\src\main\AndroidManifest.xml:210:13-49
	android:label
		ADDED from D:\fresh\freshorder-android\freshNew\src\main\AndroidManifest.xml:209:13-45
	android:windowSoftInputMode
		ADDED from D:\fresh\freshorder-android\freshNew\src\main\AndroidManifest.xml:211:13-52
	android:name
		ADDED from D:\fresh\freshorder-android\freshNew\src\main\AndroidManifest.xml:208:13-83
activity#com.freshorders.freshorder.ui.MerchantOrderDetailActivity
ADDED from D:\fresh\freshorder-android\freshNew\src\main\AndroidManifest.xml:212:9-216:64
	android:screenOrientation
		ADDED from D:\fresh\freshorder-android\freshNew\src\main\AndroidManifest.xml:215:13-49
	android:label
		ADDED from D:\fresh\freshorder-android\freshNew\src\main\AndroidManifest.xml:214:13-45
	android:windowSoftInputMode
		ADDED from D:\fresh\freshorder-android\freshNew\src\main\AndroidManifest.xml:216:13-52
	android:name
		ADDED from D:\fresh\freshorder-android\freshNew\src\main\AndroidManifest.xml:213:13-85
activity#com.freshorders.freshorder.ui.ViewFullImage
ADDED from D:\fresh\freshorder-android\freshNew\src\main\AndroidManifest.xml:217:9-221:64
	android:screenOrientation
		ADDED from D:\fresh\freshorder-android\freshNew\src\main\AndroidManifest.xml:220:13-49
	android:label
		ADDED from D:\fresh\freshorder-android\freshNew\src\main\AndroidManifest.xml:219:13-45
	android:windowSoftInputMode
		ADDED from D:\fresh\freshorder-android\freshNew\src\main\AndroidManifest.xml:221:13-52
	android:name
		ADDED from D:\fresh\freshorder-android\freshNew\src\main\AndroidManifest.xml:218:13-71
activity#com.freshorders.freshorder.ui.ImportActivity
ADDED from D:\fresh\freshorder-android\freshNew\src\main\AndroidManifest.xml:223:9-227:64
	android:screenOrientation
		ADDED from D:\fresh\freshorder-android\freshNew\src\main\AndroidManifest.xml:226:13-49
	android:label
		ADDED from D:\fresh\freshorder-android\freshNew\src\main\AndroidManifest.xml:225:13-45
	android:windowSoftInputMode
		ADDED from D:\fresh\freshorder-android\freshNew\src\main\AndroidManifest.xml:227:13-52
	android:name
		ADDED from D:\fresh\freshorder-android\freshNew\src\main\AndroidManifest.xml:224:13-72
activity#com.freshorders.freshorder.ui.DealerOrderDetailsActivity
ADDED from D:\fresh\freshorder-android\freshNew\src\main\AndroidManifest.xml:229:9-233:64
	android:screenOrientation
		ADDED from D:\fresh\freshorder-android\freshNew\src\main\AndroidManifest.xml:232:13-49
	android:label
		ADDED from D:\fresh\freshorder-android\freshNew\src\main\AndroidManifest.xml:231:13-45
	android:windowSoftInputMode
		ADDED from D:\fresh\freshorder-android\freshNew\src\main\AndroidManifest.xml:233:13-52
	android:name
		ADDED from D:\fresh\freshorder-android\freshNew\src\main\AndroidManifest.xml:230:13-84
activity#com.freshorders.freshorder.ui.AddDealerActivityNew
ADDED from D:\fresh\freshorder-android\freshNew\src\main\AndroidManifest.xml:235:9-239:64
	android:screenOrientation
		ADDED from D:\fresh\freshorder-android\freshNew\src\main\AndroidManifest.xml:238:13-49
	android:label
		ADDED from D:\fresh\freshorder-android\freshNew\src\main\AndroidManifest.xml:237:13-45
	android:windowSoftInputMode
		ADDED from D:\fresh\freshorder-android\freshNew\src\main\AndroidManifest.xml:239:13-52
	android:name
		ADDED from D:\fresh\freshorder-android\freshNew\src\main\AndroidManifest.xml:236:13-78
activity#com.freshorders.freshorder.ui.DealerUpdateProductActivity
ADDED from D:\fresh\freshorder-android\freshNew\src\main\AndroidManifest.xml:240:9-244:64
	android:screenOrientation
		ADDED from D:\fresh\freshorder-android\freshNew\src\main\AndroidManifest.xml:243:13-49
	android:label
		ADDED from D:\fresh\freshorder-android\freshNew\src\main\AndroidManifest.xml:242:13-45
	android:windowSoftInputMode
		ADDED from D:\fresh\freshorder-android\freshNew\src\main\AndroidManifest.xml:244:13-52
	android:name
		ADDED from D:\fresh\freshorder-android\freshNew\src\main\AndroidManifest.xml:241:13-85
activity#com.freshorders.freshorder.ui.PaymentHistoryScreen
ADDED from D:\fresh\freshorder-android\freshNew\src\main\AndroidManifest.xml:245:9-249:64
	android:screenOrientation
		ADDED from D:\fresh\freshorder-android\freshNew\src\main\AndroidManifest.xml:248:13-49
	android:label
		ADDED from D:\fresh\freshorder-android\freshNew\src\main\AndroidManifest.xml:247:13-45
	android:windowSoftInputMode
		ADDED from D:\fresh\freshorder-android\freshNew\src\main\AndroidManifest.xml:249:13-52
	android:name
		ADDED from D:\fresh\freshorder-android\freshNew\src\main\AndroidManifest.xml:246:13-78
activity#com.freshorders.freshorder.ui.SalesManOrderActivity
ADDED from D:\fresh\freshorder-android\freshNew\src\main\AndroidManifest.xml:250:9-254:64
	android:screenOrientation
		ADDED from D:\fresh\freshorder-android\freshNew\src\main\AndroidManifest.xml:253:13-49
	android:label
		ADDED from D:\fresh\freshorder-android\freshNew\src\main\AndroidManifest.xml:252:13-45
	android:windowSoftInputMode
		ADDED from D:\fresh\freshorder-android\freshNew\src\main\AndroidManifest.xml:254:13-52
	android:name
		ADDED from D:\fresh\freshorder-android\freshNew\src\main\AndroidManifest.xml:251:13-79
activity#com.freshorders.freshorder.ui.CreateOrderActivity
ADDED from D:\fresh\freshorder-android\freshNew\src\main\AndroidManifest.xml:255:9-260:64
	android:screenOrientation
		ADDED from D:\fresh\freshorder-android\freshNew\src\main\AndroidManifest.xml:258:13-49
	android:label
		ADDED from D:\fresh\freshorder-android\freshNew\src\main\AndroidManifest.xml:257:13-45
	android:windowSoftInputMode
		ADDED from D:\fresh\freshorder-android\freshNew\src\main\AndroidManifest.xml:260:13-52
	android:name
		ADDED from D:\fresh\freshorder-android\freshNew\src\main\AndroidManifest.xml:256:13-77
activity#eu.janmuller.android.simplecropimage.CropImage
ADDED from D:\fresh\freshorder-android\freshNew\src\main\AndroidManifest.xml:262:9-83
	android:name
		ADDED from D:\fresh\freshorder-android\freshNew\src\main\AndroidManifest.xml:262:19-80
activity#com.freshorders.freshorder.ui.ProfileActivityInitial
ADDED from D:\fresh\freshorder-android\freshNew\src\main\AndroidManifest.xml:263:9-267:64
	android:screenOrientation
		ADDED from D:\fresh\freshorder-android\freshNew\src\main\AndroidManifest.xml:266:13-49
	android:label
		ADDED from D:\fresh\freshorder-android\freshNew\src\main\AndroidManifest.xml:265:13-45
	android:windowSoftInputMode
		ADDED from D:\fresh\freshorder-android\freshNew\src\main\AndroidManifest.xml:267:13-52
	android:name
		ADDED from D:\fresh\freshorder-android\freshNew\src\main\AndroidManifest.xml:264:13-80
activity#com.freshorders.freshorder.ui.DealerAddProductActivity
ADDED from D:\fresh\freshorder-android\freshNew\src\main\AndroidManifest.xml:268:9-272:64
	android:screenOrientation
		ADDED from D:\fresh\freshorder-android\freshNew\src\main\AndroidManifest.xml:271:13-49
	android:label
		ADDED from D:\fresh\freshorder-android\freshNew\src\main\AndroidManifest.xml:270:13-45
	android:windowSoftInputMode
		ADDED from D:\fresh\freshorder-android\freshNew\src\main\AndroidManifest.xml:272:13-52
	android:name
		ADDED from D:\fresh\freshorder-android\freshNew\src\main\AndroidManifest.xml:269:13-82
activity#com.freshorders.freshorder.ui.SignupActivity
ADDED from D:\fresh\freshorder-android\freshNew\src\main\AndroidManifest.xml:273:9-277:64
	android:screenOrientation
		ADDED from D:\fresh\freshorder-android\freshNew\src\main\AndroidManifest.xml:276:13-49
	android:label
		ADDED from D:\fresh\freshorder-android\freshNew\src\main\AndroidManifest.xml:275:13-45
	android:windowSoftInputMode
		ADDED from D:\fresh\freshorder-android\freshNew\src\main\AndroidManifest.xml:277:13-52
	android:name
		ADDED from D:\fresh\freshorder-android\freshNew\src\main\AndroidManifest.xml:274:13-72
activity#com.freshorders.freshorder.ui.ProfileActivity
ADDED from D:\fresh\freshorder-android\freshNew\src\main\AndroidManifest.xml:278:9-282:64
	android:screenOrientation
		ADDED from D:\fresh\freshorder-android\freshNew\src\main\AndroidManifest.xml:281:13-49
	android:label
		ADDED from D:\fresh\freshorder-android\freshNew\src\main\AndroidManifest.xml:280:13-45
	android:windowSoftInputMode
		ADDED from D:\fresh\freshorder-android\freshNew\src\main\AndroidManifest.xml:282:13-52
	android:name
		ADDED from D:\fresh\freshorder-android\freshNew\src\main\AndroidManifest.xml:279:13-73
activity#com.freshorders.freshorder.ui.DealerClientVisit
ADDED from D:\fresh\freshorder-android\freshNew\src\main\AndroidManifest.xml:283:9-287:64
	android:screenOrientation
		ADDED from D:\fresh\freshorder-android\freshNew\src\main\AndroidManifest.xml:286:13-49
	android:label
		ADDED from D:\fresh\freshorder-android\freshNew\src\main\AndroidManifest.xml:285:13-45
	android:windowSoftInputMode
		ADDED from D:\fresh\freshorder-android\freshNew\src\main\AndroidManifest.xml:287:13-52
	android:name
		ADDED from D:\fresh\freshorder-android\freshNew\src\main\AndroidManifest.xml:284:13-75
activity#com.freshorders.freshorder.ui.DealersOrderActivity
ADDED from D:\fresh\freshorder-android\freshNew\src\main\AndroidManifest.xml:288:9-292:64
	android:screenOrientation
		ADDED from D:\fresh\freshorder-android\freshNew\src\main\AndroidManifest.xml:291:13-49
	android:label
		ADDED from D:\fresh\freshorder-android\freshNew\src\main\AndroidManifest.xml:290:13-45
	android:windowSoftInputMode
		ADDED from D:\fresh\freshorder-android\freshNew\src\main\AndroidManifest.xml:292:13-52
	android:name
		ADDED from D:\fresh\freshorder-android\freshNew\src\main\AndroidManifest.xml:289:13-78
activity#com.freshorders.freshorder.ui.DealerClientVisitDetailActivity
ADDED from D:\fresh\freshorder-android\freshNew\src\main\AndroidManifest.xml:294:9-298:64
	android:screenOrientation
		ADDED from D:\fresh\freshorder-android\freshNew\src\main\AndroidManifest.xml:297:13-49
	android:label
		ADDED from D:\fresh\freshorder-android\freshNew\src\main\AndroidManifest.xml:296:13-45
	android:windowSoftInputMode
		ADDED from D:\fresh\freshorder-android\freshNew\src\main\AndroidManifest.xml:298:13-52
	android:name
		ADDED from D:\fresh\freshorder-android\freshNew\src\main\AndroidManifest.xml:295:13-89
activity#com.freshorders.freshorder.ui.MerchantOrderActivity
ADDED from D:\fresh\freshorder-android\freshNew\src\main\AndroidManifest.xml:299:9-303:64
	android:screenOrientation
		ADDED from D:\fresh\freshorder-android\freshNew\src\main\AndroidManifest.xml:302:13-49
	android:label
		ADDED from D:\fresh\freshorder-android\freshNew\src\main\AndroidManifest.xml:301:13-45
	android:windowSoftInputMode
		ADDED from D:\fresh\freshorder-android\freshNew\src\main\AndroidManifest.xml:303:13-52
	android:name
		ADDED from D:\fresh\freshorder-android\freshNew\src\main\AndroidManifest.xml:300:13-79
activity#com.freshorders.freshorder.ui.DealersComplaintActivity
ADDED from D:\fresh\freshorder-android\freshNew\src\main\AndroidManifest.xml:304:9-308:64
	android:screenOrientation
		ADDED from D:\fresh\freshorder-android\freshNew\src\main\AndroidManifest.xml:307:13-49
	android:label
		ADDED from D:\fresh\freshorder-android\freshNew\src\main\AndroidManifest.xml:306:13-45
	android:windowSoftInputMode
		ADDED from D:\fresh\freshorder-android\freshNew\src\main\AndroidManifest.xml:308:13-52
	android:name
		ADDED from D:\fresh\freshorder-android\freshNew\src\main\AndroidManifest.xml:305:13-82
activity#com.freshorders.freshorder.ui.MerchantComplaintActivity
ADDED from D:\fresh\freshorder-android\freshNew\src\main\AndroidManifest.xml:309:9-313:64
	android:screenOrientation
		ADDED from D:\fresh\freshorder-android\freshNew\src\main\AndroidManifest.xml:312:13-49
	android:label
		ADDED from D:\fresh\freshorder-android\freshNew\src\main\AndroidManifest.xml:311:13-45
	android:windowSoftInputMode
		ADDED from D:\fresh\freshorder-android\freshNew\src\main\AndroidManifest.xml:313:13-52
	android:name
		ADDED from D:\fresh\freshorder-android\freshNew\src\main\AndroidManifest.xml:310:13-83
activity#com.freshorders.freshorder.ui.PaymentActivity
ADDED from D:\fresh\freshorder-android\freshNew\src\main\AndroidManifest.xml:314:9-318:64
	android:screenOrientation
		ADDED from D:\fresh\freshorder-android\freshNew\src\main\AndroidManifest.xml:317:13-49
	android:label
		ADDED from D:\fresh\freshorder-android\freshNew\src\main\AndroidManifest.xml:316:13-45
	android:windowSoftInputMode
		ADDED from D:\fresh\freshorder-android\freshNew\src\main\AndroidManifest.xml:318:13-52
	android:name
		ADDED from D:\fresh\freshorder-android\freshNew\src\main\AndroidManifest.xml:315:13-73
activity#com.freshorders.freshorder.ui.ProductActivity
ADDED from D:\fresh\freshorder-android\freshNew\src\main\AndroidManifest.xml:319:9-323:64
	android:screenOrientation
		ADDED from D:\fresh\freshorder-android\freshNew\src\main\AndroidManifest.xml:322:13-49
	android:label
		ADDED from D:\fresh\freshorder-android\freshNew\src\main\AndroidManifest.xml:321:13-45
	android:windowSoftInputMode
		ADDED from D:\fresh\freshorder-android\freshNew\src\main\AndroidManifest.xml:323:13-52
	android:name
		ADDED from D:\fresh\freshorder-android\freshNew\src\main\AndroidManifest.xml:320:13-73
activity#com.freshorders.freshorder.ui.SalesmanOrderDetailsActivity
ADDED from D:\fresh\freshorder-android\freshNew\src\main\AndroidManifest.xml:324:9-328:64
	android:screenOrientation
		ADDED from D:\fresh\freshorder-android\freshNew\src\main\AndroidManifest.xml:327:13-49
	android:label
		ADDED from D:\fresh\freshorder-android\freshNew\src\main\AndroidManifest.xml:326:13-45
	android:windowSoftInputMode
		ADDED from D:\fresh\freshorder-android\freshNew\src\main\AndroidManifest.xml:328:13-52
	android:name
		ADDED from D:\fresh\freshorder-android\freshNew\src\main\AndroidManifest.xml:325:13-86
activity#com.freshorders.freshorder.ui.MyDealersActivity
ADDED from D:\fresh\freshorder-android\freshNew\src\main\AndroidManifest.xml:329:9-333:64
	android:screenOrientation
		ADDED from D:\fresh\freshorder-android\freshNew\src\main\AndroidManifest.xml:332:13-49
	android:label
		ADDED from D:\fresh\freshorder-android\freshNew\src\main\AndroidManifest.xml:331:13-45
	android:windowSoftInputMode
		ADDED from D:\fresh\freshorder-android\freshNew\src\main\AndroidManifest.xml:333:13-52
	android:name
		ADDED from D:\fresh\freshorder-android\freshNew\src\main\AndroidManifest.xml:330:13-75
activity#com.freshorders.freshorder.ui.ComplaintsDeleteActivity
ADDED from D:\fresh\freshorder-android\freshNew\src\main\AndroidManifest.xml:334:9-338:64
	android:screenOrientation
		ADDED from D:\fresh\freshorder-android\freshNew\src\main\AndroidManifest.xml:337:13-49
	android:label
		ADDED from D:\fresh\freshorder-android\freshNew\src\main\AndroidManifest.xml:336:13-45
	android:windowSoftInputMode
		ADDED from D:\fresh\freshorder-android\freshNew\src\main\AndroidManifest.xml:338:13-52
	android:name
		ADDED from D:\fresh\freshorder-android\freshNew\src\main\AndroidManifest.xml:335:13-82
activity#com.freshorders.freshorder.ui.MenuActivity
ADDED from D:\fresh\freshorder-android\freshNew\src\main\AndroidManifest.xml:339:9-343:64
	android:screenOrientation
		ADDED from D:\fresh\freshorder-android\freshNew\src\main\AndroidManifest.xml:342:13-49
	android:label
		ADDED from D:\fresh\freshorder-android\freshNew\src\main\AndroidManifest.xml:341:13-45
	android:windowSoftInputMode
		ADDED from D:\fresh\freshorder-android\freshNew\src\main\AndroidManifest.xml:343:13-52
	android:name
		ADDED from D:\fresh\freshorder-android\freshNew\src\main\AndroidManifest.xml:340:13-70
activity#com.freshorders.freshorder.ui.ExportActivity
ADDED from D:\fresh\freshorder-android\freshNew\src\main\AndroidManifest.xml:344:9-348:64
	android:screenOrientation
		ADDED from D:\fresh\freshorder-android\freshNew\src\main\AndroidManifest.xml:347:13-49
	android:label
		ADDED from D:\fresh\freshorder-android\freshNew\src\main\AndroidManifest.xml:346:13-45
	android:windowSoftInputMode
		ADDED from D:\fresh\freshorder-android\freshNew\src\main\AndroidManifest.xml:348:13-52
	android:name
		ADDED from D:\fresh\freshorder-android\freshNew\src\main\AndroidManifest.xml:345:13-72
activity#com.freshorders.freshorder.ui.DealerAddNewProduct
ADDED from D:\fresh\freshorder-android\freshNew\src\main\AndroidManifest.xml:351:9-355:64
	android:screenOrientation
		ADDED from D:\fresh\freshorder-android\freshNew\src\main\AndroidManifest.xml:354:13-49
	android:label
		ADDED from D:\fresh\freshorder-android\freshNew\src\main\AndroidManifest.xml:353:13-45
	android:windowSoftInputMode
		ADDED from D:\fresh\freshorder-android\freshNew\src\main\AndroidManifest.xml:355:13-52
	android:name
		ADDED from D:\fresh\freshorder-android\freshNew\src\main\AndroidManifest.xml:352:13-77
activity#com.freshorders.freshorder.ui.AddMerchantNew
ADDED from D:\fresh\freshorder-android\freshNew\src\main\AndroidManifest.xml:357:9-361:64
	android:screenOrientation
		ADDED from D:\fresh\freshorder-android\freshNew\src\main\AndroidManifest.xml:360:13-49
	android:label
		ADDED from D:\fresh\freshorder-android\freshNew\src\main\AndroidManifest.xml:359:13-45
	android:windowSoftInputMode
		ADDED from D:\fresh\freshorder-android\freshNew\src\main\AndroidManifest.xml:361:13-52
	android:name
		ADDED from D:\fresh\freshorder-android\freshNew\src\main\AndroidManifest.xml:358:13-72
activity#com.freshorders.freshorder.ui.SalesmanAcknowledgeActivity
ADDED from D:\fresh\freshorder-android\freshNew\src\main\AndroidManifest.xml:363:9-367:64
	android:screenOrientation
		ADDED from D:\fresh\freshorder-android\freshNew\src\main\AndroidManifest.xml:366:13-49
	android:label
		ADDED from D:\fresh\freshorder-android\freshNew\src\main\AndroidManifest.xml:365:13-45
	android:windowSoftInputMode
		ADDED from D:\fresh\freshorder-android\freshNew\src\main\AndroidManifest.xml:367:13-52
	android:name
		ADDED from D:\fresh\freshorder-android\freshNew\src\main\AndroidManifest.xml:364:13-85
activity#com.freshorders.freshorder.ui.OutletStockEntry
ADDED from D:\fresh\freshorder-android\freshNew\src\main\AndroidManifest.xml:369:9-373:64
	android:screenOrientation
		ADDED from D:\fresh\freshorder-android\freshNew\src\main\AndroidManifest.xml:372:13-49
	android:label
		ADDED from D:\fresh\freshorder-android\freshNew\src\main\AndroidManifest.xml:371:13-45
	android:windowSoftInputMode
		ADDED from D:\fresh\freshorder-android\freshNew\src\main\AndroidManifest.xml:373:13-52
	android:name
		ADDED from D:\fresh\freshorder-android\freshNew\src\main\AndroidManifest.xml:370:13-74
activity#com.freshorders.freshorder.ui.OutletStockEntryDetails
ADDED from D:\fresh\freshorder-android\freshNew\src\main\AndroidManifest.xml:374:9-378:64
	android:screenOrientation
		ADDED from D:\fresh\freshorder-android\freshNew\src\main\AndroidManifest.xml:377:13-49
	android:label
		ADDED from D:\fresh\freshorder-android\freshNew\src\main\AndroidManifest.xml:376:13-45
	android:windowSoftInputMode
		ADDED from D:\fresh\freshorder-android\freshNew\src\main\AndroidManifest.xml:378:13-52
	android:name
		ADDED from D:\fresh\freshorder-android\freshNew\src\main\AndroidManifest.xml:375:13-81
activity#com.freshorders.freshorder.ui.SurveyMerchant
ADDED from D:\fresh\freshorder-android\freshNew\src\main\AndroidManifest.xml:380:9-384:64
	android:screenOrientation
		ADDED from D:\fresh\freshorder-android\freshNew\src\main\AndroidManifest.xml:383:13-49
	android:label
		ADDED from D:\fresh\freshorder-android\freshNew\src\main\AndroidManifest.xml:382:13-45
	android:windowSoftInputMode
		ADDED from D:\fresh\freshorder-android\freshNew\src\main\AndroidManifest.xml:384:13-52
	android:name
		ADDED from D:\fresh\freshorder-android\freshNew\src\main\AndroidManifest.xml:381:13-72
activity#com.freshorders.freshorder.ui.MyDayPlan
ADDED from D:\fresh\freshorder-android\freshNew\src\main\AndroidManifest.xml:385:9-390:64
	android:screenOrientation
		ADDED from D:\fresh\freshorder-android\freshNew\src\main\AndroidManifest.xml:388:13-49
	android:label
		ADDED from D:\fresh\freshorder-android\freshNew\src\main\AndroidManifest.xml:387:13-45
	android:windowSoftInputMode
		ADDED from D:\fresh\freshorder-android\freshNew\src\main\AndroidManifest.xml:390:13-52
	android:theme
		ADDED from D:\fresh\freshorder-android\freshNew\src\main\AndroidManifest.xml:389:13-71
	android:name
		ADDED from D:\fresh\freshorder-android\freshNew\src\main\AndroidManifest.xml:386:13-67
activity#com.freshorders.freshorder.ui.OutletStockView
ADDED from D:\fresh\freshorder-android\freshNew\src\main\AndroidManifest.xml:392:9-397:64
	android:screenOrientation
		ADDED from D:\fresh\freshorder-android\freshNew\src\main\AndroidManifest.xml:395:13-49
	android:label
		ADDED from D:\fresh\freshorder-android\freshNew\src\main\AndroidManifest.xml:394:13-45
	android:windowSoftInputMode
		ADDED from D:\fresh\freshorder-android\freshNew\src\main\AndroidManifest.xml:397:13-52
	android:theme
		ADDED from D:\fresh\freshorder-android\freshNew\src\main\AndroidManifest.xml:396:13-71
	android:name
		ADDED from D:\fresh\freshorder-android\freshNew\src\main\AndroidManifest.xml:393:13-73
activity#com.freshorders.freshorder.utils.Otp
ADDED from D:\fresh\freshorder-android\freshNew\src\main\AndroidManifest.xml:399:9-403:64
	android:screenOrientation
		ADDED from D:\fresh\freshorder-android\freshNew\src\main\AndroidManifest.xml:402:13-49
	android:label
		ADDED from D:\fresh\freshorder-android\freshNew\src\main\AndroidManifest.xml:401:13-45
	android:windowSoftInputMode
		ADDED from D:\fresh\freshorder-android\freshNew\src\main\AndroidManifest.xml:403:13-52
	android:name
		ADDED from D:\fresh\freshorder-android\freshNew\src\main\AndroidManifest.xml:400:13-64
receiver#com.freshorders.freshorder.utils.IncomingSms
ADDED from D:\fresh\freshorder-android\freshNew\src\main\AndroidManifest.xml:405:9-409:20
	android:name
		ADDED from D:\fresh\freshorder-android\freshNew\src\main\AndroidManifest.xml:405:19-78
intent-filter#android.provider.Telephony.SMS_RECEIVED
ADDED from D:\fresh\freshorder-android\freshNew\src\main\AndroidManifest.xml:406:13-408:29
action#android.provider.Telephony.SMS_RECEIVED
ADDED from D:\fresh\freshorder-android\freshNew\src\main\AndroidManifest.xml:407:17-82
	android:name
		ADDED from D:\fresh\freshorder-android\freshNew\src\main\AndroidManifest.xml:407:25-79
service#com.freshorders.freshorder.ui.MyService
ADDED from D:\fresh\freshorder-android\freshNew\src\main\AndroidManifest.xml:411:9-83
	android:name
		ADDED from D:\fresh\freshorder-android\freshNew\src\main\AndroidManifest.xml:411:18-72
uses-sdk
INJECTED from D:\fresh\freshorder-android\freshNew\src\main\AndroidManifest.xml reason: use-sdk injection requested
MERGED from [com.android.support:multidex:1.0.1] C:\Users\Karthika\.android\build-cache\0a74505a3118fd740bbfb6e85a1b2c6ea8fe0bcc\output\AndroidManifest.xml:18:5-42
MERGED from [com.instamojo:android-sdk:1.1.1] C:\Users\Karthika\.android\build-cache\0cad38004876e6c43a68d2dbc738a7211d2f3a54\output\AndroidManifest.xml:7:5-9:41
MERGED from [com.rengwuxian.materialedittext:library:2.1.4] C:\Users\Karthika\.android\build-cache\d333e7e49935f7a7e62b9f9274d06d9d9dea9c81\output\AndroidManifest.xml:6:5-8:41
MERGED from [in.juspay:godel:0.6.6] C:\Users\Karthika\.android\build-cache\c9464ec2f586e6b595d12af60a8fc77c2ed1b509\output\AndroidManifest.xml:3:5-72
MERGED from [com.google.android.gms:play-services:6.5.87] C:\Users\Karthika\.android\build-cache\3188368098bc197d38a4cdd883277398eb0e9789\output\AndroidManifest.xml:18:5-42
MERGED from [com.google.maps.android:android-maps-utils:0.3.4] C:\Users\Karthika\.android\build-cache\1c626c6c09c5c2bb6a9eaa664e74e3053a482493\output\AndroidManifest.xml:5:5-43
MERGED from [com.android.support:recyclerview-v7:25.3.0] C:\Users\Karthika\.android\build-cache\11558819c9f171fc389370b5b379d6e04576ae37\output\AndroidManifest.xml:20:5-43
MERGED from [com.android.support:cardview-v7:25.3.0] C:\Users\Karthika\.android\build-cache\fec086f064a8c38e12b3a682a8f98631740fb792\output\AndroidManifest.xml:20:5-43
MERGED from [com.kaopiz:kprogresshud:1.0.5] C:\Users\Karthika\.android\build-cache\a5a3dbd2693473abb584e16b063e52e6ed949465\output\AndroidManifest.xml:7:5-9:41
MERGED from [com.leavjenn.smoothdaterangepicker:library:0.2.0] D:\fresh\freshorder-android\library\build\intermediates\bundles\default\AndroidManifest.xml:7:5-9:41
MERGED from [com.android.support:appcompat-v7:25.3.0] C:\Users\Karthika\.android\build-cache\ffa177ac814ef5512d0ceea8b5dbbef6a1ae5c3f\output\AndroidManifest.xml:21:5-23:78
MERGED from [com.android.support:support-v4:25.3.0] C:\Users\Karthika\.android\build-cache\acbe94ec74a74acf36d47718e52c2d99237e8883\output\AndroidManifest.xml:21:5-23:54
MERGED from [com.android.support:support-fragment:25.3.0] C:\Users\Karthika\.android\build-cache\4468b789e1b5ae98ca5ec7309d0bd4fc3f01c5d5\output\AndroidManifest.xml:21:5-23:60
MERGED from [com.android.support:support-media-compat:25.3.0] C:\Users\Karthika\.android\build-cache\53f39c47fa1f2483f937a559efb9219b55be332e\output\AndroidManifest.xml:21:5-23:63
MERGED from [com.android.support:support-core-ui:25.3.0] C:\Users\Karthika\.android\build-cache\17097fefa0127b40a896388ff0b4c82a9c817ebf\output\AndroidManifest.xml:21:5-23:58
MERGED from [com.android.support:support-core-utils:25.3.0] C:\Users\Karthika\.android\build-cache\1d41a5da6c356c3c03b4a12812ef168114359a23\output\AndroidManifest.xml:21:5-23:61
MERGED from [com.android.support:animated-vector-drawable:25.3.0] C:\Users\Karthika\.android\build-cache\a235902fdd1dfdcbd24efa9a7889343355b68ee6\output\AndroidManifest.xml:20:5-44
MERGED from [com.android.support:support-vector-drawable:25.3.0] C:\Users\Karthika\.android\build-cache\6f027afe4f4994b50f7077698b424f85fffdd53e\output\AndroidManifest.xml:20:5-43
MERGED from [com.android.support:support-compat:25.3.0] C:\Users\Karthika\.android\build-cache\8c0bd97d915ec60eb047e32b544ef48d2a0920ee\output\AndroidManifest.xml:21:5-23:58
MERGED from [com.squareup:android-times-square:1.5.0] C:\Users\Karthika\.android\build-cache\8a38ede9ce29e60ef9a67737d5d71ef09ecde5b9\output\AndroidManifest.xml:8:5-72
	tools:overrideLibrary
		ADDED from [com.android.support:appcompat-v7:25.3.0] C:\Users\Karthika\.android\build-cache\ffa177ac814ef5512d0ceea8b5dbbef6a1ae5c3f\output\AndroidManifest.xml:23:9-75
	android:targetSdkVersion
		INJECTED from D:\fresh\freshorder-android\freshNew\src\main\AndroidManifest.xml
		INJECTED from D:\fresh\freshorder-android\freshNew\src\main\AndroidManifest.xml
	android:minSdkVersion
		INJECTED from D:\fresh\freshorder-android\freshNew\src\main\AndroidManifest.xml
		INJECTED from D:\fresh\freshorder-android\freshNew\src\main\AndroidManifest.xml
activity#com.instamojo.android.activities.PaymentDetailsActivity
ADDED from [com.instamojo:android-sdk:1.1.1] C:\Users\Karthika\.android\build-cache\0cad38004876e6c43a68d2dbc738a7211d2f3a54\output\AndroidManifest.xml:15:9-26:20
	android:screenOrientation
		ADDED from [com.instamojo:android-sdk:1.1.1] C:\Users\Karthika\.android\build-cache\0cad38004876e6c43a68d2dbc738a7211d2f3a54\output\AndroidManifest.xml:17:13-49
	android:theme
		ADDED from [com.instamojo:android-sdk:1.1.1] C:\Users\Karthika\.android\build-cache\0cad38004876e6c43a68d2dbc738a7211d2f3a54\output\AndroidManifest.xml:18:13-44
	android:name
		ADDED from [com.instamojo:android-sdk:1.1.1] C:\Users\Karthika\.android\build-cache\0cad38004876e6c43a68d2dbc738a7211d2f3a54\output\AndroidManifest.xml:16:13-83
meta-data#android.app.searchable
ADDED from [com.instamojo:android-sdk:1.1.1] C:\Users\Karthika\.android\build-cache\0cad38004876e6c43a68d2dbc738a7211d2f3a54\output\AndroidManifest.xml:19:13-21:54
	android:resource
		ADDED from [com.instamojo:android-sdk:1.1.1] C:\Users\Karthika\.android\build-cache\0cad38004876e6c43a68d2dbc738a7211d2f3a54\output\AndroidManifest.xml:21:17-51
	android:name
		ADDED from [com.instamojo:android-sdk:1.1.1] C:\Users\Karthika\.android\build-cache\0cad38004876e6c43a68d2dbc738a7211d2f3a54\output\AndroidManifest.xml:20:17-54
intent-filter#android.intent.action.SEARCH
ADDED from [com.instamojo:android-sdk:1.1.1] C:\Users\Karthika\.android\build-cache\0cad38004876e6c43a68d2dbc738a7211d2f3a54\output\AndroidManifest.xml:23:13-25:29
action#android.intent.action.SEARCH
ADDED from [com.instamojo:android-sdk:1.1.1] C:\Users\Karthika\.android\build-cache\0cad38004876e6c43a68d2dbc738a7211d2f3a54\output\AndroidManifest.xml:24:17-71
	android:name
		ADDED from [com.instamojo:android-sdk:1.1.1] C:\Users\Karthika\.android\build-cache\0cad38004876e6c43a68d2dbc738a7211d2f3a54\output\AndroidManifest.xml:24:25-68
activity#com.instamojo.android.activities.PaymentActivity
ADDED from [com.instamojo:android-sdk:1.1.1] C:\Users\Karthika\.android\build-cache\0cad38004876e6c43a68d2dbc738a7211d2f3a54\output\AndroidManifest.xml:27:9-32:58
	android:screenOrientation
		ADDED from [com.instamojo:android-sdk:1.1.1] C:\Users\Karthika\.android\build-cache\0cad38004876e6c43a68d2dbc738a7211d2f3a54\output\AndroidManifest.xml:30:13-49
	android:label
		ADDED from [com.instamojo:android-sdk:1.1.1] C:\Users\Karthika\.android\build-cache\0cad38004876e6c43a68d2dbc738a7211d2f3a54\output\AndroidManifest.xml:29:13-36
	android:windowSoftInputMode
		ADDED from [com.instamojo:android-sdk:1.1.1] C:\Users\Karthika\.android\build-cache\0cad38004876e6c43a68d2dbc738a7211d2f3a54\output\AndroidManifest.xml:32:13-55
	android:theme
		ADDED from [com.instamojo:android-sdk:1.1.1] C:\Users\Karthika\.android\build-cache\0cad38004876e6c43a68d2dbc738a7211d2f3a54\output\AndroidManifest.xml:31:13-44
	android:name
		ADDED from [com.instamojo:android-sdk:1.1.1] C:\Users\Karthika\.android\build-cache\0cad38004876e6c43a68d2dbc738a7211d2f3a54\output\AndroidManifest.xml:28:13-76
meta-data#com.google.android.gms.version
ADDED from [com.google.android.gms:play-services:6.5.87] C:\Users\Karthika\.android\build-cache\3188368098bc197d38a4cdd883277398eb0e9789\output\AndroidManifest.xml:21:9-23:69
	android:value
		ADDED from [com.google.android.gms:play-services:6.5.87] C:\Users\Karthika\.android\build-cache\3188368098bc197d38a4cdd883277398eb0e9789\output\AndroidManifest.xml:23:13-66
	android:name
		ADDED from [com.google.android.gms:play-services:6.5.87] C:\Users\Karthika\.android\build-cache\3188368098bc197d38a4cdd883277398eb0e9789\output\AndroidManifest.xml:22:13-58
meta-data#android.support.VERSION
ADDED from [com.android.support:recyclerview-v7:25.3.0] C:\Users\Karthika\.android\build-cache\11558819c9f171fc389370b5b379d6e04576ae37\output\AndroidManifest.xml:22:5-24:34
MERGED from [com.android.support:cardview-v7:25.3.0] C:\Users\Karthika\.android\build-cache\fec086f064a8c38e12b3a682a8f98631740fb792\output\AndroidManifest.xml:22:5-24:34
MERGED from [com.android.support:appcompat-v7:25.3.0] C:\Users\Karthika\.android\build-cache\ffa177ac814ef5512d0ceea8b5dbbef6a1ae5c3f\output\AndroidManifest.xml:25:5-27:34
MERGED from [com.android.support:support-v4:25.3.0] C:\Users\Karthika\.android\build-cache\acbe94ec74a74acf36d47718e52c2d99237e8883\output\AndroidManifest.xml:25:5-27:34
MERGED from [com.android.support:support-fragment:25.3.0] C:\Users\Karthika\.android\build-cache\4468b789e1b5ae98ca5ec7309d0bd4fc3f01c5d5\output\AndroidManifest.xml:25:5-27:34
MERGED from [com.android.support:support-media-compat:25.3.0] C:\Users\Karthika\.android\build-cache\53f39c47fa1f2483f937a559efb9219b55be332e\output\AndroidManifest.xml:25:5-27:34
MERGED from [com.android.support:support-core-ui:25.3.0] C:\Users\Karthika\.android\build-cache\17097fefa0127b40a896388ff0b4c82a9c817ebf\output\AndroidManifest.xml:25:5-27:34
MERGED from [com.android.support:support-core-utils:25.3.0] C:\Users\Karthika\.android\build-cache\1d41a5da6c356c3c03b4a12812ef168114359a23\output\AndroidManifest.xml:25:5-27:34
MERGED from [com.android.support:animated-vector-drawable:25.3.0] C:\Users\Karthika\.android\build-cache\a235902fdd1dfdcbd24efa9a7889343355b68ee6\output\AndroidManifest.xml:22:5-24:34
MERGED from [com.android.support:support-vector-drawable:25.3.0] C:\Users\Karthika\.android\build-cache\6f027afe4f4994b50f7077698b424f85fffdd53e\output\AndroidManifest.xml:22:5-24:34
MERGED from [com.android.support:support-compat:25.3.0] C:\Users\Karthika\.android\build-cache\8c0bd97d915ec60eb047e32b544ef48d2a0920ee\output\AndroidManifest.xml:25:5-27:34
	android:value
		ADDED from [com.android.support:recyclerview-v7:25.3.0] C:\Users\Karthika\.android\build-cache\11558819c9f171fc389370b5b379d6e04576ae37\output\AndroidManifest.xml:24:9-31
	android:name
		ADDED from [com.android.support:recyclerview-v7:25.3.0] C:\Users\Karthika\.android\build-cache\11558819c9f171fc389370b5b379d6e04576ae37\output\AndroidManifest.xml:23:9-47
